{
  "red": {
    "id": "red",
    "title": "Taboo",
    "text": "Faites deviner le maximum de carte sans dire les mots taboos.",
    "duration": 60,
    "options": {}
  },
  "blue": {
    "id": "blue",
    "title": "Mimento",
    "text": "Mimer le maximum de carte sans faire de bruit.",
    "duration": 60,
    "options": {}
  },
  "green": {
    "id": "green",
    "title": "Limites",
    "text": "Faites deviner le maximum de carte en un nombre limite de mots jusqu'à la fin du temps imparti.",
    "duration": 120,
    "options": {
      "startCounter": 15
    }
  },
  "yellow": {
    "id": "yellow",
    "title": "Pictionary",
    "text": "Faites deviner un maximun de carte par le dessin.",
    "duration": 120,
    "options": {}
  }
}