{
  "CLIENT": {
    "INGAME": "INGAME",
    "GET_WORD": "GET_WORD",
    "ENDGAME": "ENDGAME",
    "VALIDATE_WORD": "VALIDATE_WORD",
    "RESET_GAME": "RESET_GAME",
    "GET_SCORE": "GET_SCORE",
    "DECREMENT_HINT": "DECREMENT_HINT"
  },
  "SERVER": {
    "SEND_WORD": "SEND_WORD",
    "MENU_SELECT": "MENU_SELECT",
    "SEND_CURRENT_PLAYER": "SEND_CURRENT_PLAYER",
    "SEND_SCORE": "SEND_SCORE",
    "SEND_TIMER": "SEND_TIMER",
    "INIT_INGAME": "INIT_INGAME",
    "RESET_GAME": "RESET_GAME",
    "SEND_HINT_COUNTER": "SEND_HINT_COUNTER"
  }
}